(module Switch-50-0118-00 (layer F.Cu) (tedit 67712039)
  (fp_text reference REF** (at -5 -5) (layer F.SilkS)
    (effects (font (size 1 1) (thickness 0.15)))
  )
  (fp_text value Switch-50-0118-00 (at 1 -3) (layer F.Fab)
    (effects (font (size 1 1) (thickness 0.15)))
  )
  (fp_line (start -6 -1) (end -6 2) (layer F.Fab) (width 0.12))
  (fp_line (start 6 14) (end 6 2) (layer F.Fab) (width 0.12))
  (fp_line (start -6 2) (end -6 14) (layer F.Fab) (width 0.12))
  (fp_circle (center -7 -1) (end -6.619 -1) (layer F.Fab) (width 0.1524))
  (fp_line (start 6 -1) (end -6 -1) (layer F.Fab) (width 0.12))
  (fp_line (start 6 2) (end 6 -1) (layer F.Fab) (width 0.12))
  (fp_line (start -6 14) (end 6 14) (layer F.Fab) (width 0.12))
  (fp_line (start -6 -1) (end -6 2) (layer F.SilkS) (width 0.12))
  (fp_line (start 6 -1) (end -6 -1) (layer F.SilkS) (width 0.12))
  (fp_line (start 6 2) (end 6 -1) (layer F.SilkS) (width 0.12))
  (fp_line (start 6 14) (end 6 2) (layer F.SilkS) (width 0.12))
  (fp_line (start -6 14) (end 6 14) (layer F.SilkS) (width 0.12))
  (fp_line (start -6 2) (end -6 14) (layer F.SilkS) (width 0.12))
  (fp_circle (center -7 -1) (end -6.619 -1) (layer F.SilkS) (width 0.1524))
  (pad 2 thru_hole circle (at 3.5 0) (size 1.6 1.6) (drill 1.0922) (layers *.Cu *.Mask))
  (pad 1 thru_hole circle (at -3.5 0) (size 1.6 1.6) (drill 1.0922) (layers *.Cu *.Mask))
  (model "$(MYLIB)/3D/Switch-50-0118-00.step"
    (offset (xyz 0 -7.8 0))
    (scale (xyz 1 1 1))
    (rotate (xyz -90 0 180))
  )
)
