(module Transformer-BV202S (layer F.Cu) (tedit 6772A3F5)
  (fp_text reference REF** (at -9.5 -13) (layer F.SilkS)
    (effects (font (size 1 1) (thickness 0.15)))
  )
  (fp_text value Transformer-BV202S (at 0.5 -0.5) (layer F.Fab)
    (effects (font (size 1 1) (thickness 0.15)))
  )
  (fp_line (start 11.5 9.5) (end -11.5 9.5) (layer F.SilkS) (width 0.12))
  (fp_line (start -11.5 9.5) (end -11.5 -12) (layer F.SilkS) (width 0.12))
  (fp_line (start 11.5 9.5) (end 11.5 -12) (layer F.SilkS) (width 0.12))
  (fp_line (start 11.5 -12) (end -11.5 -12) (layer F.SilkS) (width 0.12))
  (pad 2 thru_hole circle (at 7.5 7.5) (size 2 2) (drill 0.9) (layers *.Cu *.Mask))
  (pad 1 thru_hole circle (at -7.5 7.5) (size 2 2) (drill 0.9) (layers *.Cu *.Mask))
  (pad 3 thru_hole circle (at 2.5 -7.5) (size 2 2) (drill 0.9) (layers *.Cu *.Mask))
  (pad 4 thru_hole circle (at -2.5 -7.5) (size 2 2) (drill 0.9) (layers *.Cu *.Mask))
)
